module scheduler

go 1.16

require (
	github.com/andybalholm/brotli v1.0.3 // indirect
	github.com/gofiber/fiber v1.14.6 // indirect
	github.com/gofiber/fiber/v2 v2.21.0 // indirect
	github.com/jinzhu/gorm v1.9.16 // indirect
	github.com/joho/godotenv v1.4.0 // indirect
	github.com/klauspost/compress v1.13.6 // indirect
	golang.org/x/sys v0.0.0-20211107104306-e0b2ad06fe42 // indirect
)
